vector	VEC_ORIGIN = '0 0 0';
vector	VEC_HULL_MIN = '-16 -16 -24';
vector	VEC_HULL_MAX = '16 16 32';

vector	VEC_HULL2_MIN = '-32 -32 -24';
vector	VEC_HULL2_MAX = '32 32 64';

vector getMinsById(float mt_id) =
{
	switch(mt_id)
	{
		case MT_ROTFISH:
			return '-16 -16 -24';
		case MT_ROTTWEILER:
			return '-32 -32 -24';
		case MT_GRUNT:
			return '-16 -16 -24';
		case MT_ENFORCER:
			return '-16 -16 -24';
		case MT_SCRAG:
			return '-16 -16 -24';
		case MT_ZOMBIE:
			return '-16 -16 -24';
		case MT_OGRE:
			return VEC_HULL2_MIN;
		case MT_FIEND:
			return VEC_HULL2_MIN;
		case MT_KNIGHT:
			return '-16 -16 -24';
		case MT_HELLKNIGHT:
			return VEC_ORIGIN;
		case MT_SHAMBLER:
			return VEC_HULL2_MIN;
		case MT_VORE:
			return VEC_HULL2_MIN;
		case MT_SPAWN:
			return '-16 -16 -24';
		default:
			return '0 0 0';
	}
};

vector getMaxsById(float mt_id) =
{
	switch(mt_id)
	{
		case MT_ROTFISH:
			return '16 16 24';
		case MT_ROTTWEILER:
			return '32 32 40';
		case MT_GRUNT:
			return '16 16 40';
		case MT_ENFORCER:
			return '16 16 40';
		case MT_SCRAG:
			return '16 16 40';
		case MT_ZOMBIE:
			return '16 16 40';
		case MT_OGRE:
			return VEC_HULL2_MAX;
		case MT_FIEND:
			return VEC_HULL2_MAX;
		case MT_KNIGHT:
			return '16 16 40';
		case MT_HELLKNIGHT:
			return VEC_ORIGIN;
		case MT_SHAMBLER:
			return VEC_HULL2_MAX;
		case MT_VORE:
			return VEC_HULL2_MAX;
		case MT_SPAWN:
			return '16 16 40';
		default:
			return '0 0 0';
	}
};
