void drawDraftMenu() =
{
	local float x,y,i;
	local vector pos, margin, iconRGB, descPos;
	pos = descPos = margin = '2 2';	//set margin, eliminate norefs
	descPos_y = screen_size_y - 30;

	i = 0;
	for(y = 0; y < 4; y++)
	{
		pos = draftMenuPos;
		pos_y = draftMenuPos_y + y*75;

		//category headers
		drawstring(pos - '0 16', categories[y], '16 16', '1 1 1', 1, 1);

		for(x = 0; x < 4; x++)
		{
			pos_x = draftMenuPos_x + x*58;

			//prints the hotkey for the item over its menu representation
			drawfill(pos, '54 54', '3 0 0', 0.22, 0);
			drawfill(pos + '1 1', '52 52', '0 0 0', 0.66, 0);
			drawfill(pos + '1 2', '52 17', '0 0 0', 0.33, 0);

			iconRGB = '1 1 1';	//item available

			//if mouse position is within icon bounds
			//drawHover is icon under the cursor
			//highlight hovered draft icon
			if(mpos_x > pos_x + margin_x && mpos_y > pos_y + margin_y && mpos_x < pos_x + draftIconSize_x +margin_x && mpos_y < pos_y + draftIconSize_y + margin_y)
			{
				float stl;
				draftHover = draftItems[i];
				iconRGB = '1 0 0';

				if(strlen(item_desc1[i])*16.2 > strlen(item_desc2[i])*12.1)
					stl = strlen(item_desc1[i])*16.1;
				else
					stl = strlen(item_desc2[i])*12.1;

				//draw item descriptions
				drawfill(descPos - '2 22', [stl, 40], '0 0 0', 0.9, 0);
				drawfill(descPos, [stl, 40/2], '0.03 0.03 0.03', 0.9, 0);
				drawstring(descPos - '0 20', item_desc1[i], '16 16', '1 1 1', 1, 1);
				drawstring(descPos, item_desc2[i], '12 12', '1 0 0', 1, 1);
			}

			//gray out entire category if player has chosen from it
			if(getMenuIdByItem(draftItems[i]) == MENU_DRAFT_PRIMARY && primaryTaken)
				iconRGB = '0.33 0.33 0.33';	//item picked
			//gray out entire category if player has chosen from it
			if(getMenuIdByItem(draftItems[i]) == MENU_DRAFT_SECONDARY && secondaryTaken)
				iconRGB = '0.33 0.33 0.33';	//item picked
			//gray out entire category if player has chosen from it
			if(getMenuIdByItem(draftItems[i]) == MENU_DRAFT_ARMOR && armorTaken)
				iconRGB = '0.33 0.33 0.33';	//item picked
			//gray out entire category if player has chosen from it
			if(getMenuIdByItem(draftItems[i]) == MENU_DRAFT_SPECIAL && specialTaken)
				iconRGB = '0.33 0.33 0.33';	//item picked

			if(draftItems[i] & f_oghPicked)
				iconRGB = '0.08 0.08 0.08';	//item picked

			
			//draw draft item icon
//			drawpic(pos + margin, strcat("gfx/draft/",ftos(i)), draftIconSize, iconRGB, 1, 0);
			drawpic(pos + margin, getIconById(draftItems[i]), draftIconSize, iconRGB, 1, 0);
			//draw hotkeys
			drawstring(pos + margin, substring(hotKeys, i, 1), '16 16', '1 1 1', 1, 0);

			i++;
		}
	}

	if(draftHover)
		//draw custon cursor
		drawstring(mpos, "+", '16 16', '1 1 1', 1, 1);
	else
		drawstring(mpos, "X", '16 16', '1 1 1', 1, 1);
};


