void updateStats() = 
{

	if(f_oldMonstersKilled != f_monstersKilled)
		drawstring('100 100', strcat("new monster: ", getMonsterById(diffMask(f_monstersKilled, f_oldMonstersKilled))), '8 8', '1 1 1', 1, 1);
//		drawstring('100 100', strcat("killed: ", ftos(f_monstersKilled), " | ", ftos(f_oldMonstersKilled)), '8 8', '1 1 1', 1, 1);


	f_oghMenu = getstati(32);
	f_oghPicked = getstati(33);	//already drafted items mask
	f_healthpool = floor(getstatf(34));

	f_health = getstatf(STAT_HEALTH);
	f_ammo = getstati(STAT_AMMO);
	f_weapon = getstatbits(STAT_ACTIVEWEAPON);

	f_items = getstatbits(STAT_ITEMS);	//for tracking active powerups
	f_items2 = getstatbits(35);	//for tracking items

	s_name = getstats(36);
	f_primaryAmmo = getstati(37);
	f_secondaryAmmo = getstati(38);
	f_specialDuration = floor(getstati(39));
	f_unlife = getstati(40);	//dead people health, so you dont do weird things when flagged dead but have health

	f_resistances[DT_NORMAL] = getstati(41);
	f_resistances[DT_FIRE] = getstati(42);
	f_resistances[DT_ACID] = getstati(43);
	f_resistances[DT_ELECTRICITY] = getstati(44);
	f_resistances[DT_MELEE] = getstati(45);

	f_armor = getstati(47);
	f_monstersKilled = getstatbits(48);	//tracks enemy types killed. so we can flag a new encounter

	v_playerOrigin_x = getstati(49);
	v_playerOrigin_y = getstati(51);
	v_playerOrigin_z = getstati(52);

	f_special = getstati(53);

	f_oldMonstersKilled = f_monstersKilled;

	float i;
	for (i = 0; i < 5; i++)
	{
		f_damages[i] = 0;	//clear f_damages before setting them
	}


	if(f_weapon == IT_AXE)
	{
		f_damages[DT_FIRE] = 0.30;
		f_damages[DT_ACID] = 0.30;
		f_damages[DT_ELECTRICITY] = 0.30;
	}
	if(f_weapon == IT_SHOTGUN)
	{
		f_damages[DT_NORMAL] = 1.00;
	}

	if(f_weapon == IT_SUPER_SHOTGUN)
	{
		f_damages[DT_NORMAL] = 0.50;
		f_damages[DT_FIRE] = 0.50;
	}
	if(f_weapon == IT_NAILGUN)
	{
		f_damages[DT_NORMAL] = 0.50;
		f_damages[DT_ACID] = 0.50;
	}
	if(f_weapon == IT_SUPER_NAILGUN)
	{
		f_damages[DT_NORMAL] = 0.50;
		f_damages[DT_ELECTRICITY] = 0.50;
	}
	if(f_weapon == IT_GRENADE_LAUNCHER)
	{
		f_damages[DT_ACID] = 1.00;
	}
	if(f_weapon == IT_ROCKET_LAUNCHER)
	{
		f_damages[DT_FIRE] = 1.00;
	}
	if(f_weapon == IT_LIGHTNING)
	{
		f_damages[DT_ELECTRICITY] = 1.00;
	}

	local string s_str;
	local vector strPos;
	strPos = screen_center;
	strPos_y = 20;
	s_str = strcat(":", ftos(f_specialDuration));
	strPos_x -= stringwidth(s_str, 0)/2;

};
