
void gainCash(entity targ, entity attacker) =
{
	attacker.cash += targ.max_health;
};

void incapacitatePlayer(entity e) =
{	//used for finishing level before teammates. and for drafts
	e.solid = SOLID_NOT;
	e.movetype = MOVETYPE_NONE;
//	e.touch = SUB_Null;
	e.deadflag = DEAD_DYING;
//	setmodel (self, string_null);
	//set view to intermission view.
};

void incapacitateAll() =
{
	local entity e;
	for(e = nextent(world); e; e = nextent(e))
	{
		if(e.classname == "player")
			incapacitatePlayer(e);
	}	
};

void recapacitatePlayer(entity e)
{
	e.solid = SOLID_SLIDEBOX;
	e.movetype = MOVETYPE_WALK;
//	e.touch = SUB_Null;
	e.deadflag = DEAD_NO;

//still a hack. but necessary? 
//	setmodel (self, "progs/eyes.mdl");
//	modelindex_eyes = self.modelindex;

//	setmodel (self, "progs/player.mdl");
//	modelindex_player = self.modelindex;
};

void recapacitateAll() =
{
	local entity e;
	for(e = nextent(world); e; e = nextent(e))
	{
		if(e.classname == "player")
			recapacitatePlayer(e);
	}	
};

//requires hacking up changeMap in client.qc 
	//actually hack up GotoNextMap, its a very small function and would be more readable.
		//just add a list of if map == then nextmap =.
string nextEpisode() =
{//go through episodes instead of missions

	if(mapname == "start")
		return "e1m1";

	if(mapname == "e1m1")
		return "e2m1";

	if(mapname == "e2m1")
		return "e3m1";

	if(mapname == "e3m1")
		return "e4m1";

	if(mapname == "e4m1")
		return "e1m2";

	if(mapname == "e1m2")
		return "e2m2";

	if(mapname == "e2m2")
		return  "e3m2";

	if(mapname == "e3m2")
		return  "e4m2";

	if(mapname == "e4m2")
		return  "e1m3";

	if(mapname == "e1m3")
		return  "e2m3";

	if(mapname == "e2m3")
		return  "e3m3";

	if(mapname == "e3m3")
		return  "e4m3";

	if(mapname == "e4m3")
		return  "e1m4";

	if(mapname == "e1m4")
		return  "e2m4";

	if(mapname == "e2m4")
		return  "e3m4";

	if(mapname == "e3m4")
		return  "e4m4";

	return "start";
};

