/*  Copyright (C) 1996-1997  Id Software, Inc.

    This program is free software; you can redistribute it and/or modify
    it under the terms of the GNU General Public License as published by
    the Free Software Foundation; either version 2 of the License, or
    (at your option) any later version.

    This program is distributed in the hope that it will be useful,
    but WITHOUT ANY WARRANTY; without even the implied warranty of
    MERCHANTABILITY or FITNESS FOR A PARTICULAR PURPOSE.  See the
    GNU General Public License for more details.

    You should have received a copy of the GNU General Public License
    along with this program; if not, write to the Free Software
    Foundation, Inc., 59 Temple Place, Suite 330, Boston, MA 02111-1307 USA

    See file, 'COPYING', for details.
*/

void (entity targ, entity inflictor, entity attacker, float damage) T_Damage;
void () player_run;
void(entity bomb, entity attacker, float rad, entity ignore) T_RadiusDamage;
void(vector org, vector vel, float damage) SpawnBlood;
void() SuperDamageSound;
void()usePowerup;
void()GrenadeTouch;
void() W_Bat_Projectiles;

// called by worldspawn
void() W_Precache =
{
	precache_sound ("weapons/r_exp3.wav");	// new rocket explosion
	precache_sound ("weapons/rocket1i.wav");	// spike gun
	precache_sound ("weapons/sgun1.wav");
	precache_sound ("weapons/guncock.wav");	// player shotgun
	precache_sound ("weapons/ric1.wav");	// ricochet (used in c code)
	precache_sound ("weapons/ric2.wav");	// ricochet (used in c code)
	precache_sound ("weapons/ric3.wav");	// ricochet (used in c code)
	precache_sound ("weapons/spike2.wav");	// super spikes
	precache_sound ("weapons/tink1.wav");	// spikes tink (used in c code)
	precache_sound ("weapons/grenade.wav");	// grenade launcher
	precache_sound ("weapons/bounce.wav");		// grenade bounce
	precache_sound ("weapons/shotgn2.wav");	// super shotgun
};

float() crandom =
{
	return 2*(random() - 0.5);
};

/*
================
W_FireAxe
================
*/


void() W_FireAxe =
{
	local	vector	source;
	local	vector	org;

	//whack projectiles back into the face of the monster that threw them
	W_Bat_Projectiles();

	makevectors (self.v_angle);
	source = self.origin + '0 0 16';
	traceline (source, source + v_forward*64, FALSE, self);
	if (trace_fraction == 1.0)
		return;
	
	org = trace_endpos - v_forward*4;

	if (trace_ent.takedamage)
	{
		trace_ent.axhitme = 1;
		SpawnBlood (org, '0 0 0', 20);
		T_Damage2 (trace_ent, self, self, 20, WT_AXE);

		//i made axe not do normal damage because i didnt want nonnullifiable damage in the axe
		//and thats why dt_melee is at 1. special difficult or weird enemies can check for dt_melee
			//and do instakills or whatever. but its not a significant source of
				//daily damage
	}									//like axing a scrag or a demon

	else
	{	// hit wall
		sound (self, CHAN_WEAPON, "player/axhit2.wav", 1, ATTN_NORM);
		WriteByte (MSG_BROADCAST, SVC_TEMPENTITY);
		WriteByte (MSG_BROADCAST, TE_GUNSHOT);
		WriteCoord (MSG_BROADCAST, org_x);
		WriteCoord (MSG_BROADCAST, org_y);
		WriteCoord (MSG_BROADCAST, org_z);
	}

};

void() W_Bat_Projectiles =
{
	local float cdist;
	local entity head;
	local vector src, dot;
	cdist = 120;	//was 90..90 seemed realistic, but i wanted to make it easier to time
	head = findradius(self.origin, cdist);

	src = self.origin + '0 0 16';


	//thx supa!
	while (head)
	{		//find projectile
		if (head.classname == "grenade" || head.classname == "laser" || head.classname == "wizspike" || head.classname == "knightspike" || head.classname == "spike"|| head.classname == "super_spike"|| head.classname == "zombie_missile" ||  head.classname == "vore_ball" )
		{	//direction from player to found object
			dot = normalize(head.origin - src);

			if (dot * v_forward > 0.707)
			{
				if (vlen(src - head.origin) < cdist)
				{
					cdist = vlen(src - head.origin);

					//set damagetype of missile to throwers weakness
					//bonus damage for doing something that requires effort
					if (head.owner.classname == "monster_ogre")
					{				
						head.health = 100;	//stored for extra damage.
						head.weapType = WT_NAILGUN;	//ACID DAMAGE TYPE HACK
						head.velocity_z += 60;	//give it a bit more upswing
						sound(self ,CHAN_WEAPON, "weapons/bounce.wav", 1, ATTN_NORM);	
					}

					if (head.owner.classname == "monster_wizard")
					{
						head.weapType = WT_KNIGHT_MELEE;	//melle damage hack
						sound(self ,CHAN_WEAPON, "weapons/tink1.wav", 1, ATTN_NORM);	
					}

					if (head.owner.classname == "monster_hell_knight")
					{
						head.weapType = WT_LIGHTNING;	//lightning damage hack
						sound(self ,CHAN_WEAPON, "weapons/tink1.wav", 1, ATTN_NORM);	
					}


					if (head.owner.classname == "monster_enforcer")
					{
						float r;
						r = random();

						head.weapType = WT_SHOTGUN;	//normal damage hack
						//mix up ricochet sounds
						if(r > 66)
							sound(self ,CHAN_WEAPON, "weapons/ric1.wav", 1, ATTN_NORM);	

						else if (r > 33)
							sound(self ,CHAN_WEAPON, "weapons/ric2.wav", 1, ATTN_NORM);	

						else
							sound(self ,CHAN_WEAPON, "weapons/ric3.wav", 1, ATTN_NORM);	
					}

					if (head.owner.classname == "monster_zombie")
					{
						head.weapType = WT_ROCKET_LAUNCHER;	//FIRE DAMAGE HACK
						head.touch = GrenadeTouch;
						sound(self ,CHAN_WEAPON, "weapons/tink1.wav", 1, ATTN_NORM);	
					}

					if (head.owner.classname == "monster_vore")
					{
						head.weapType = WT_ROCKET_LAUNCHER;	//fire damage hack
						sound(self ,CHAN_WEAPON, "weapons/tink1.wav", 1, ATTN_NORM);	
					}

					
					//bat the projectile back
					bprint(self.netname);
					bprint(" axed a ");
					bprint(head.classname);
					bprint("!\n");

					//direction to thrower from thrown object	
					dot = normalize(head.owner.origin - head.origin);

					// set missile speed	
					makevectors (head.v_angle);
					head.velocity = dot;
				//	head.movetype = MOVETYPE_FLYMISSILE;
					head.velocity = head.velocity * 1000;
					head.angles = vectoangles(head.velocity);

					//player now owns projectile. so it can blow up on enemy	
					head.owner = self;	
				}
			}
		}
		head = head.chain;
	}
};

//============================================================================


vector() wall_velocity =
{
	local vector	vel;
	
	vel = normalize (self.velocity);
	vel = normalize(vel + v_up*(random()- 0.5) + v_right*(random()- 0.5));
	vel = vel + 2*trace_plane_normal;
	vel = vel * 200;
	
	return vel;
};


/*
================
SpawnMeatSpray
================
*/
void(vector org, vector vel) SpawnMeatSpray =
{
	local	entity missile;

	missile = spawn ();
	missile.owner = self;
	missile.movetype = MOVETYPE_BOUNCE;
	missile.solid = SOLID_NOT;

	makevectors2 (self.angles);

	missile.velocity = vel;
	missile.velocity_z = missile.velocity_z + 250 + 50*random();

	missile.avelocity = '3000 1000 2000';
	
	// set missile duration
	missile.nextthink = time + 1;
	missile.think = SUB_Remove;

	setmodel (missile, "progs/zom_gib.mdl");
	setsize (missile, '0 0 0', '0 0 0');		
	setorigin (missile, org);
};

/*
================
SpawnBlood
================
*/
void(vector org, vector vel, float damage) SpawnBlood =
{
	particle (org, vel*0.1, 73, damage*2);
};

/*
================
spawn_touchblood
================
*/
void(float damage) spawn_touchblood =
{
	local vector	vel;

	vel = wall_velocity () * 0.2;
	SpawnBlood (self.origin + vel*0.01, vel, damage);
};


/*
================
SpawnChunk
================
*/
void(vector org, vector vel) SpawnChunk =
{
	particle (org, vel*0.02, 0, 10);
};

/*
==============================================================================

MULTI-DAMAGE

Collects multiple small damages into a single damage

==============================================================================
*/

entity	multi_ent;
float	multi_damage;

void() ClearMultiDamage =
{
	multi_ent = world;
	multi_damage = 0;
};

void(vector epos, vector vel) ApplyMultiDamage =
{
	if (!multi_ent)
		return;

	T_Damage2 (multi_ent, self, self, multi_damage, WT_SHOTGUN);

	//so we can make best guesses in csqc instead of sending a bajillion xyz coords
	sendBuckshotEffect(multi_ent, epos, vel);
};

void(entity hit, float damage, vector epos, vector vel) AddMultiDamage =
{
	if (!hit)
		return;
	
	if (hit != multi_ent)
	{
		ApplyMultiDamage (epos, vel);
		multi_damage = damage;
		multi_ent = hit;
		multi_ent.shCount = 1;	//gnounc, for the sendevent
	}
	else
	{
		multi_damage = multi_damage + damage;
		//GNOUNC for the sendevent
		multi_ent.shDamage = multi_damage;	
		multi_ent.shCount++;
	}
};

/*
==============================================================================

BULLETS

==============================================================================
*/

/*
================
TraceAttack
================
*/
void(float damage, vector dir) TraceAttack =
{
	local	vector	vel, org;
	
	vel = normalize(dir + v_up*crandom() + v_right*crandom());
	vel = vel + 2*trace_plane_normal;
	vel = vel * 200;

	org = trace_endpos - dir*4;

	if (trace_ent.takedamage)
	{
//		SpawnBlood (org, vel*0.2, damage);
		AddMultiDamage (trace_ent, damage, trace_endpos, vel);
	}

/*	else
	{
		WriteByte (MSG_BROADCAST, SVC_TEMPENTITY);
		WriteByte (MSG_BROADCAST, TE_GUNSHOT);
		WriteCoord (MSG_BROADCAST, org_x);
		WriteCoord (MSG_BROADCAST, org_y); 
		WriteCoord (MSG_BROADCAST, org_z);
	}
*/
};

/*
================
FireBullets

Used by shotgun, super shotgun, and enemy soldier firing
Go to the trouble of combining multiple pellets into a single damage call.
================
*/
void(float shotcount, vector dir, vector spread) FireBullets =
{
	local	vector direction;
	local	vector	src, vel;
	
	makevectors(self.v_angle);

	src = self.origin + v_forward*10;
	src_z = self.absmin_z + self.size_z * 0.7;

	ClearMultiDamage ();
	while (shotcount > 0)
	{
		direction = dir + crandom()*spread_x*v_right + crandom()*spread_y*v_up;

		traceline (src, src + direction*2048, FALSE, self);
		if (trace_fraction != 1.0)
			TraceAttack (4, direction);

		shotcount = shotcount - 1;
	}
	vel = normalize(dir + v_up*crandom() + v_right*crandom());
	vel = vel + 2*trace_plane_normal;

	ApplyMultiDamage (trace_endpos, vel);

	//trace for wall //gnounc
	direction = aim (self, 1000);
	traceline (src, src + direction*2048, TRUE, self);

	sendBuckshotCollisionEffect(trace_endpos, vel);
};

/*
================
W_FireShotgun
================
*/
void() W_FireShotgun =
{
	local vector dir;

	sound (self, CHAN_WEAPON, "weapons/guncock.wav", 1, ATTN_NORM);	

	self.punchangle_x = -2;
	
	self.currentammo = self.ammo_primary = self.ammo_primary - 1;
	dir = aim (self, 100000);
	FireBullets (6, dir, '0.04 0.04 0');
};


/*
================
W_FireSuperShotgun
================
*/
void() W_FireSuperShotgun =
{
	local vector dir;

	if (self.currentammo == 1)
	{
		W_FireShotgun ();
		return;
	}
		
	sound (self ,CHAN_WEAPON, "weapons/shotgn2.wav", 1, ATTN_NORM);	

	self.punchangle_x = -4;
	
	self.currentammo = self.ammo_primary = self.ammo_primary - 2;
	dir = aim (self, 100000);
	FireBullets (14, dir, '0.14 0.08 0');
};


/*
==============================================================================

ROCKETS

==============================================================================
*/

void()	s_explode1	=	[0,		s_explode2] {};
void()	s_explode2	=	[1,		s_explode3] {};
void()	s_explode3	=	[2,		s_explode4] {};
void()	s_explode4	=	[3,		s_explode5] {};
void()	s_explode5	=	[4,		s_explode6] {};
void()	s_explode6	=	[5,		SUB_Remove] {};

void() BecomeExplosion =
{
	if(self.weapType == WT_NAILGUN || self.weapType == WT_GRENADE_LAUNCHER)
	{
		self.scale = 3;
		self.alpha = 0.8;
		self.colormod = '0 1 0';
	}
	if(self.weapType == WT_SUPER_NAILGUN || self.weapType == WT_LIGHTNING)
	{
		self.scale = 3;
		self.alpha = 0.8;
		self.colormod = '0 0 1';
	}
	if(self.weapType == WT_SUPER_SHOTGUN || self.weapType == WT_ROCKET_LAUNCHER)
	{
		self.scale = 3;
		self.alpha = 0.8;
		self.colormod = '1 0 0';
	}

	self.movetype = MOVETYPE_NONE;
	self.velocity = '0 0 0';
	self.touch = SUB_Null;
	setmodel (self, "progs/s_explod.spr");
	self.solid = SOLID_NOT;
	s_explode1 ();
};

void() T_MissileTouch =
{
	local float	damg;

	if (other == self.owner)
		return;		// don't explode on owner

	if (pointcontents(self.origin) == CONTENT_SKY)
	{
		remove(self);
		return;
	}

	damg = 100 + random()*20;

	//damagetype
	local float wt;

	if(self.classname == "rocket")
		wt = WT_ROCKET_LAUNCHER;
	else
		wt = WT_GRENADE_LAUNCHER;
	
	if (other.health)	
		T_Damage2 (other, self, self.owner, damg, wt);

	// don't do radius damage to the other, because all the damage
	// was done in the impact
	T_RadiusDamage (self, self.owner, 120, other);

	self.origin = self.origin - 8*normalize(self.velocity);

	WriteByte (MSG_BROADCAST, SVC_TEMPENTITY);
	WriteByte (MSG_BROADCAST, TE_EXPLOSION);
	WriteCoord (MSG_BROADCAST, self.origin_x);
	WriteCoord (MSG_BROADCAST, self.origin_y);
	WriteCoord (MSG_BROADCAST, self.origin_z);

	BecomeExplosion ();
};



/*
================
W_FireRocket
================
*/
void() W_FireRocket =
{
	local	entity missile;
	
	self.currentammo = self.ammo_secondary = self.ammo_secondary - 1;
	
	sound (self, CHAN_WEAPON, "weapons/sgun1.wav", 1, ATTN_NORM);

	self.punchangle_x = -2;

	missile = spawn ();
	missile.classname = "rocket";
	missile.owner = self;
	missile.movetype = MOVETYPE_FLYMISSILE;
	missile.solid = SOLID_BBOX;

	//gnounc
	missile.weapType = WT_ROCKET_LAUNCHER;
		
	// set missile speed	
	makevectors (self.v_angle);
	missile.velocity = aim(self, 1000);
	missile.velocity = missile.velocity * 1000;
	missile.angles = vectoangles(missile.velocity);
	
	missile.touch = T_MissileTouch;
	
	// set missile duration
	missile.nextthink = time + 5;
	missile.think = SUB_Remove;

	setmodel (missile, "progs/lavaball.mdl");
	setsize (missile, '0 0 0', '0 0 0');		
	setorigin (missile, self.origin + v_forward*8 + '0 0 16');
};

/*
===============================================================================

LIGHTNING

===============================================================================
*/

/*
=================
LightningDamage
=================
*/
void(vector p1, vector p2, entity from, float damage) LightningDamage =
{
	local entity		e1, e2;
	local vector		f;
	
	f = p2 - p1;
	normalize (f);
	f_x = 0 - f_y;
	f_y = f_x;
	f_z = 0;
	f = f*16;

	e1 = e2 = world;

	traceline (p1, p2, FALSE, self);
	if (trace_ent.takedamage)
	{
		particle (trace_endpos, '0 0 100', 225, damage*4);
		T_Damage2 (trace_ent, from, from, damage, WT_LIGHTNING);
		if (self.classname == "player")
		{
			if (other.classname == "player")
				trace_ent.velocity_z = trace_ent.velocity_z + 400;
		}
	}

	e1 = trace_ent;

	traceline (p1 + f, p2 + f, FALSE, self);
	if (trace_ent != e1 && trace_ent.takedamage)
	{
		particle (trace_endpos, '0 0 100', 225, damage*4);
		T_Damage2 (trace_ent, from, from, damage, WT_LIGHTNING);
	}

	e2 = trace_ent;

	traceline (p1 - f, p2 - f, FALSE, self);
	if (trace_ent != e1 && trace_ent != e2 && trace_ent.takedamage)
	{
		particle (trace_endpos, '0 0 100', 225, damage*4);
		T_Damage2 (trace_ent, from, from, damage, WT_LIGHTNING);
	}
};


void() W_FireLightning =
{
	local	vector		org;
	local   float           cells;

	if(!self.ammo_secondary)
	{
		setWeapon();
		return;
	}
	// explode if under water
	if (self.waterlevel > 1)
	{
		cells = self.ammo_secondary;
		self.ammo_secondary = 0;
		setWeapon();	//you're out of ammo. change weapons if you survived	--gnounc
		T_RadiusDamage (self, self, 35*cells, world);
		return;
	}

	if (self.t_width < time)
	{
		sound (self, CHAN_WEAPON, "weapons/lhit.wav", 1, ATTN_NORM);
		self.t_width = time + 0.6;
	}

	self.punchangle_x = -2;
	self.currentammo = self.ammo_secondary = self.ammo_secondary - 1;
	org = self.origin + '0 0 16';
	
	traceline (org, org + v_forward*600, TRUE, self);

	WriteByte (MSG_BROADCAST, SVC_TEMPENTITY);
	WriteByte (MSG_BROADCAST, TE_LIGHTNING2);
	WriteEntity (MSG_BROADCAST, self);
	WriteCoord (MSG_BROADCAST, org_x);
	WriteCoord (MSG_BROADCAST, org_y);
	WriteCoord (MSG_BROADCAST, org_z);
	WriteCoord (MSG_BROADCAST, trace_endpos_x);
	WriteCoord (MSG_BROADCAST, trace_endpos_y);
	WriteCoord (MSG_BROADCAST, trace_endpos_z);

	LightningDamage (self.origin, trace_endpos + v_forward*4, self, 30);
};


//=============================================================================


void() GrenadeExplode =
{
	T_RadiusDamage (self, self.owner, 120, world);

	local entity e;
	//setoff nearby explosives
	for(e = findradius(self.origin, 100); e; e = e.chain)
	{
		if(e.classname == "rocket" || e.classname == "grenade")
		{
			e.nextthink = time + 0.3;
			e.think = GrenadeExplode;
		}
	}

	WriteByte (MSG_BROADCAST, SVC_TEMPENTITY);
	WriteByte (MSG_BROADCAST, TE_EXPLOSION);
	WriteCoord (MSG_BROADCAST, self.origin_x);
	WriteCoord (MSG_BROADCAST, self.origin_y);
	WriteCoord (MSG_BROADCAST, self.origin_z);

	BecomeExplosion ();
};

void() GrenadeTouch =
{
	if (other == self.owner)
		return;		// don't explode on owner
	if (other.takedamage == DAMAGE_AIM)
	{
//		GrenadeExplode();
		//play muffled thud
	//	sound (self, CHAN_WEAPON, "weapons/bounce.wav", 1, ATTN_NORM);	// bounce sound
		self.velocity = randomvector()*10;	//drop, bounce a tiny bit
		self.SendFlags |= 1;
		return;
	}


	sound (self, CHAN_WEAPON, "weapons/bounce.wav", 1, ATTN_NORM);	// bounce sound

	if (self.velocity == '0 0 0')
		self.avelocity = '0 0 0';

//	self.SendFlags |= 1;	//tell csqc update_enttiy NEW ENTITY
};

/*
================
W_FireGrenade
================
*/
void() W_FireGrenade =
{
	local	entity missile;
	
	self.currentammo = self.ammo_secondary = self.ammo_secondary - 1;
	
	sound (self, CHAN_WEAPON, "weapons/grenade.wav", 1, ATTN_NORM);

	self.punchangle_x = -2;

	missile = spawn ();
	missile.owner = self;
	missile.movetype = MOVETYPE_BOUNCE;
	missile.solid = SOLID_BBOX;
	missile.classname = "grenade";
		
	//gnounc
	missile.weapType = WT_GRENADE_LAUNCHER;


	makevectors (self.v_angle);

	if (self.v_angle_x)
		missile.velocity = v_forward*600 + v_up * 200 + crandom()*v_right*10 + crandom()*v_up*10;


	else
	{
		missile.velocity = aim(self, 10000);
		missile.velocity = missile.velocity * 600;
		missile.velocity_z = 200;
	}

	missile.avelocity = '300 300 300';

	missile.angles = vectoangles(missile.velocity);
	
	missile.touch = GrenadeTouch;
	
	// set missile duration
	missile.nextthink = time + 2.5;
	missile.think = GrenadeExplode;

	setmodel (missile, "progs/w_spike.mdl");
	setsize (missile, '0 0 0', '0 0 0');		
	setorigin (missile, self.origin);

	missile.SendEntity = updateGasCanister;	//for csqc_ent_update
	missile.SendFlags |= 2;	//tell csqc update_enttiy NEW ENTITY
};


//=============================================================================

void() spike_touch;
void() superspike_touch;


/*
===============
launch_spike

Used for both the player and the ogre
===============
*/
void(vector org, vector dir) launch_spike =
{
	newmis = spawn ();
	newmis.owner = self;
	newmis.movetype = MOVETYPE_FLYMISSILE;
	newmis.solid = SOLID_BBOX;

	newmis.angles = vectoangles(dir);
	
	newmis.touch = spike_touch;
	newmis.classname = "spike";
	newmis.think = SUB_Remove;
	newmis.nextthink = time + 6;
	setmodel (newmis, "progs/w_spike.mdl");		//wizard spike, its an acid attack now --gnounc
	setsize (newmis, VEC_ORIGIN, VEC_ORIGIN);		
	setorigin (newmis, org);

	newmis.velocity = dir * 1000;
};

void() W_FireSuperSpikes =
{
	local vector	dir;
	
	sound (self, CHAN_WEAPON, "weapons/spike2.wav", 1, ATTN_NORM);
	self.attack_finished = time + 0.2;
	self.currentammo = self.ammo_secondary = self.ammo_secondary - 2;
	dir = aim (self, 1000);
	launch_spike (self.origin + '0 0 16', dir);
	newmis.classname = "super_spike";		//so we know der difference	--gnounc
	newmis.touch = superspike_touch;
	setmodel (newmis, "progs/bolt2.mdl");		//now an electric attack
	setsize (newmis, VEC_ORIGIN, VEC_ORIGIN);		
	self.punchangle_x = -2;

	//gnounc
	newmis.weapType = WT_SUPER_NAILGUN;
};

void(float ox) W_FireSpikes =
{
	local vector	dir;
	
	makevectors (self.v_angle);
	
	if (self.ammo_secondary >= 2 && self.weapon == IT_SUPER_NAILGUN)
	{
		W_FireSuperSpikes ();
		return;
	}

	//ng if outta ammo dont shoot kay?	--gnounc
	if(self.weapon == self.primary)
	{
		if(!self.ammo_primary)
		{
			setWeapon();
			return;
		}
	}
	//sng. dont shoot with 0 bullets --gnounc
	if(self.weapon == self.secondary)
	{
		if(!self.ammo_secondary)
		{
			setWeapon();
			return;
		}
	}

	sound (self, CHAN_WEAPON, "weapons/rocket1i.wav", 1, ATTN_NORM);
	self.attack_finished = time + 0.2;
	self.currentammo = self.ammo_primary = self.ammo_primary - 1;
	dir = aim (self, 1000);
	launch_spike (self.origin + '0 0 16' + v_right*ox, dir);

	//gnounc
	newmis.weapType = WT_NAILGUN;

	self.punchangle_x = -2;
};

void() spike_touch =
{
	if (other == self.owner)
		return;

	if (other.solid == SOLID_TRIGGER)
		return;	// trigger field, do nothing

	if (pointcontents(self.origin) == CONTENT_SKY)
	{
		remove(self);
		return;
	}
	
	// hit something that bleeds
	if (other.takedamage)
	{
		spawn_touchblood (9);
		
		T_Damage2 (other, self, self.owner, 20, self.weapType);
	}

	else
	{
		WriteByte (MSG_BROADCAST, SVC_TEMPENTITY);
		
		if (self.classname == "wizspike")
			WriteByte (MSG_BROADCAST, TE_WIZSPIKE);
		else if (self.classname == "knightspike")
			WriteByte (MSG_BROADCAST, TE_KNIGHTSPIKE);
		
		else
			WriteByte (MSG_BROADCAST, TE_SPIKE);

		WriteCoord (MSG_BROADCAST, self.origin_x);
		WriteCoord (MSG_BROADCAST, self.origin_y);
		WriteCoord (MSG_BROADCAST, self.origin_z);
	}

	remove(self);

};

void() superspike_touch =
{
	if (other == self.owner)
		return;

	if (other.solid == SOLID_TRIGGER)
		return;	// trigger field, do nothing

	if (pointcontents(self.origin) == CONTENT_SKY)
	{
		remove(self);
		return;
	}
	
	// hit something that bleeds
	if (other.takedamage)
	{
		spawn_touchblood (18);
		T_Damage2 (other, self, self.owner, 9,  WT_SUPER_NAILGUN);
	}
	else
	{
		WriteByte (MSG_BROADCAST, SVC_TEMPENTITY);
		WriteByte (MSG_BROADCAST, TE_KNIGHTSPIKE);
		WriteCoord (MSG_BROADCAST, self.origin_x);
		WriteCoord (MSG_BROADCAST, self.origin_y);
		WriteCoord (MSG_BROADCAST, self.origin_z);
	}

	remove(self);
};


float() W_hasNoAmmo =
{
	if (!self.currentammo)
		return TRUE;

	if (self.weapon == IT_AXE)
		return FALSE;	//blatant lie. axe requires no ammo, so we say SURE HE'S GOT AMMO YUP!
	
	// drop the weapon down
	return FALSE;
};

/*
============
W_Attack

An attack impulse can be triggered now
============
*/
void()	player_axe1;
void()	player_axeb1;
void()	player_axec1;
void()	player_axed1;
void()	player_shot1;
void()	player_nail1;
void()	player_light1;
void()	player_rocket1;

void() W_Attack =
{
	local	float	r;

	if (W_hasNoAmmo ())
		return;

	makevectors	(self.v_angle);		// calculate forward angle for velocity


	if(!self.invisible_finished)	//dont wakeup monsters if you're invisible
		self.show_hostile = time + 1;	// wake monsters up

	if (self.weapon == IT_AXE)
	{
		sound (self, CHAN_WEAPON, "weapons/ax1.wav", 1, ATTN_NORM);
		r = random();
		if (r < 0.25)
			player_axe1 ();

		else if (r<0.5)
			player_axeb1 ();

		else if (r<0.75)
			player_axec1 ();

		else
			player_axed1 ();

		self.attack_finished = time + 0.5;
	}

	else if (self.weapon == IT_SHOTGUN)
	{
		player_shot1 ();
		W_FireShotgun ();
		self.attack_finished = time + 0.5;
	}

	else if (self.weapon == IT_SUPER_SHOTGUN)
	{
		player_shot1 ();
		W_FireSuperShotgun ();
		self.attack_finished = time + 0.7;
	}

	else if (self.weapon == IT_NAILGUN)
	{
		player_nail1 ();
	}

	else if (self.weapon == IT_SUPER_NAILGUN)
	{
		player_nail1 ();
	}

	else if (self.weapon == IT_GRENADE_LAUNCHER)
	{
		player_rocket1();
		W_FireGrenade();
		self.attack_finished = time + 0.6;
	}

	else if (self.weapon == IT_ROCKET_LAUNCHER)
	{
		player_rocket1();
		W_FireRocket();
		self.attack_finished = time + 0.8;
	}

	else if (self.weapon == IT_LIGHTNING)
	{
		player_light1();
		self.attack_finished = time + 0.1;
		sound (self, CHAN_AUTO, "weapons/lstart.wav", 1, ATTN_NORM);
	}
};

void setWeapon() =
{//set weaponmodel and ammotype. for spawns and mapchanges

	player_run ();		// get out of any weapon firing states
	self.weaponframe = 0;	//stop any wepaon animations
	self.items = self.items - ( self.items & (IT_SHELLS | IT_NAILS | IT_ROCKETS | IT_CELLS) );
	//stop displaying current ammo icon

	if(!self.weapon)
	{
		if(self.primary)
			self.weapon = self.primary;
		else
			self.weapon = self.secondary;
	}

	self.weaponmodel = getModelByNum(self.weapon);
	self.items = self.items | getAmmotypeByWeapon(self.weapon);	

	//for hud ammocount
	if(self.weapon == self.primary)
		self.currentammo = self.ammo_primary;
	if(self.weapon == self.secondary)
		self.currentammo = self.ammo_secondary;
};

void togglePrimary() =
{
	if(self.weapon == self.primary)
		self.weapon = self.secondary;

	else
		self.weapon = self.primary;

	setWeapon();
};

/*
============
ImpulseCommands

============
*/
void() ImpulseCommands =
{

	if (self.impulse == 10)
		togglePrimary();	//switch between primary and secondary weaponds

	if (self.impulse == 12)
		togglePrimary();	//switch between primary and secondary weaponds

	if (self.impulse == 42)
		usePowerup();

	self.impulse = 0;
};

/*
============
W_WeaponFrame

Called every frame so impulse events can be handled as well as possible
============
*/
void() W_WeaponFrame =
{
	if (time < self.attack_finished)
		return;

	if (self.impulse)	// gb, stop wasting performance
		ImpulseCommands ();
	
	// check for attack
	if (self.button0)
	{
		SuperDamageSound ();
		W_Attack ();
	}
};

/*
========
SuperDamageSound

Plays sound if needed
========
*/
void() SuperDamageSound =
{
	if (self.super_damage_finished > time)
	{
		if (self.super_sound < time)
		{
			self.super_sound = time + 1;
			sound (self, CHAN_BODY, "items/damage3.wav", 1, ATTN_NORM);
		}
	}
	return;
};

